{ "aws:autoscaling:launchconfiguration" : 
  { 
    "EC2KeyName" : "bootstrap",
    "InstanceType" : "m1.small",
    "SecurityGroups" : "sg-af3f21c3,sg-21dfc14d,sg-ed3c2281",
    "ImageId" : "ami-b63210f3",
    "MonitoringInterval" : "1 minute"
  }

}
